<svg width="41" height="46" viewBox="0 0 41 46" fill="none" xmlns="http://www.w3.org/2000/svg">
<path d="M21.3041 0.279266V37.626M21.3041 37.626L8.49953 24.8214M21.3041 37.626L34.1087 24.8214M0.763428 44.0283H40.7778" stroke="black" stroke-width="3"/>
</svg>
