<svg width="67" height="59" viewBox="0 0 67 59" fill="none" xmlns="http://www.w3.org/2000/svg">
<path d="M59.8481 42.3134V57.016H1V14.4496H59.8481V29.2708" stroke="white" stroke-width="2" stroke-miterlimit="10"/>
<path d="M42.7717 29.2708C39.0861 29.2708 36.0146 32.235 36.0146 35.7921C36.0146 39.3492 39.0861 42.3134 42.7717 42.3134H65.5001V29.2708H42.7717Z" stroke="white" stroke-width="2" stroke-miterlimit="10"/>
<path d="M44.4915 38.0449C45.7807 38.0449 46.8257 37.0363 46.8257 35.7921C46.8257 34.5479 45.7807 33.5393 44.4915 33.5393C43.2023 33.5393 42.1572 34.5479 42.1572 35.7921C42.1572 37.0363 43.2023 38.0449 44.4915 38.0449Z" fill="white"/>
<path d="M4.07129 14.4497L51.7394 6.26843L52.7017 14.1828" stroke="white" stroke-width="2" stroke-miterlimit="10"/>
<path d="M4.07129 14.4498L44.9824 2L46.8252 7.21706" stroke="white" stroke-width="2" stroke-miterlimit="10"/>
</svg>
