<svg width="56" height="65" viewBox="0 0 56 65" fill="none" xmlns="http://www.w3.org/2000/svg">
<path d="M17.5195 32.1764L25.2926 40.1533L41.2341 23.3599" stroke="white" stroke-width="2" stroke-miterlimit="10"/>
<path d="M40.3115 10.9049C33.8559 8.94571 27.9273 2.36829 27.9273 2.36829C27.9273 2.36829 21.9986 8.94571 15.543 10.9049C9.08738 12.8642 1.05078 11.7446 1.05078 11.7446C1.05078 11.7446 1.05078 27.5584 4.47622 36.375C7.7699 44.9116 13.8303 59.0461 27.7955 63.1045C41.7607 59.0461 47.9529 44.7717 51.1148 36.375C54.5403 27.5584 54.5403 11.7446 54.5403 11.7446C54.5403 11.7446 46.7672 12.8642 40.3115 10.9049Z" stroke="white" stroke-width="2" stroke-miterlimit="10"/>
</svg>
